<svg xmlns="http://www.w3.org/2000/svg" width="50" height="28" viewBox="0 0 50 28">
    <g>
        <g>
            <g>
                <path fill="#3486ac" d="M12.46 0a3.5 3.5 0 1 0 0 7 3.5 3.5 0 0 0 0-7z"/>
                <path fill="#3486ac" d="M12.46 0a3.5 3.5 0 1 0 0 7 3.5 3.5 0 0 0 0-7z"/>
            </g>
            <g>
                <path fill="#3486ac" d="M15.96 9.333h-7V28h2.333v-3.5h2.333V28h2.333v-3.5h2.334l-2.334-9.334z"/>
            </g>
            <g>
                <path fill="#3486ac" d="M3.5 0a3.5 3.5 0 1 0 0 7 3.5 3.5 0 0 0 0-7z"/>
            </g>
            <g>
                <path fill="#3486ac" d="M7 9.333H0V28h2.334v-7h2.333v7H7z"/>
            </g>
            <g>
                <path fill="#83ca54" d="M25.942 4.667a3.5 3.5 0 1 0 0 7 3.5 3.5 0 0 0 0-7z"/>
            </g>
            <g>
                <path fill="#83ca54" d="M22.442 14v14h2.333v-4.667h2.334V28h2.333V14z"/>
            </g>
            <g>
                <path fill="#83ca54" d="M35.17 4.667a3.5 3.5 0 1 0 0 7 3.5 3.5 0 0 0 0-7z"/>
            </g>
            <g>
                <path fill="#83ca54" d="M31.67 14v14h2.334v-4.667h2.333V28h2.334V14z"/>
            </g>
            <g>
                <path fill="#83ca54" d="M45.17 4.667a3.5 3.5 0 1 0 0 7 3.5 3.5 0 0 0 0-7z"/>
            </g>
            <g>
                <path fill="#83ca54" d="M41.67 14v14h2.334v-4.667h2.333V28h2.334V14z"/>
            </g>
        </g>
    </g>
</svg>